<?xml version="1.0" encoding="UTF-8" standalone="no"?>
<!DOCTYPE svg PUBLIC "-//W3C//DTD SVG 1.1//EN"
 "http://www.w3.org/Graphics/SVG/1.1/DTD/svg11.dtd">
<!-- Generated by graphviz version 2.26.3 (20100126.1600)
 -->
<!-- Title: _anonymous_0 Pages: 1 -->
<svg width="122pt" height="260pt"
 viewBox="0.00 0.00 122.40 260.00" xmlns="http://www.w3.org/2000/svg" xmlns:xlink="http://www.w3.org/1999/xlink">
<g id="graph1" class="graph" transform="scale(1 1) rotate(0) translate(4 256)">
<title>_anonymous_0</title>
<polygon fill="white" stroke="white" points="-4,5 -4,-256 119.4,-256 119.4,5 -4,5"/>
<!-- 0 -->
<g id="node1" class="node"><title>0</title>
<ellipse fill="#cab2d6" stroke="black" cx="73" cy="-234" rx="27" ry="18"/>
<text text-anchor="middle" x="73" y="-229.9" font-family="Times Roman,serif" font-size="14.00">0</text>
</g>
<!-- 2 -->
<g id="node3" class="node"><title>2</title>
<ellipse fill="#cab2d6" stroke="black" cx="73" cy="-162" rx="27" ry="18"/>
<text text-anchor="middle" x="73" y="-157.9" font-family="Times Roman,serif" font-size="14.00">2</text>
</g>
<!-- 0&#45;&gt;2 -->
<g id="edge2" class="edge"><title>0&#45;&gt;2</title>
<path fill="none" stroke="black" d="M73,-215.831C73,-208.131 73,-198.974 73,-190.417"/>
<polygon fill="black" stroke="black" points="76.5001,-190.413 73,-180.413 69.5001,-190.413 76.5001,-190.413"/>
</g>
<!-- 3 -->
<g id="node5" class="node"><title>3</title>
<ellipse fill="#cab2d6" stroke="black" cx="27" cy="-90" rx="27" ry="18"/>
<text text-anchor="middle" x="27" y="-85.9" font-family="Times Roman,serif" font-size="14.00">3</text>
</g>
<!-- 0&#45;&gt;3 -->
<g id="edge4" class="edge"><title>0&#45;&gt;3</title>
<path fill="none" stroke="black" d="M59.4265,-218.101C51.5027,-207.895 42.0905,-193.975 37,-180 29.792,-160.212 27.3893,-136.49 26.7367,-118.369"/>
<polygon fill="black" stroke="black" points="30.2317,-118.085 26.5302,-108.158 23.2332,-118.227 30.2317,-118.085"/>
</g>
<!-- 2&#45;&gt;3 -->
<g id="edge6" class="edge"><title>2&#45;&gt;3</title>
<path fill="none" stroke="black" d="M62.3311,-145.301C56.6414,-136.395 49.5223,-125.252 43.1684,-115.307"/>
<polygon fill="black" stroke="black" points="45.9445,-113.151 37.6111,-106.609 40.0456,-116.92 45.9445,-113.151"/>
</g>
<!-- 1 -->
<g id="node8" class="node"><title>1</title>
<ellipse fill="#cab2d6" stroke="black" cx="82" cy="-18" rx="27" ry="18"/>
<text text-anchor="middle" x="82" y="-13.9" font-family="Times Roman,serif" font-size="14.00">1</text>
</g>
<!-- 3&#45;&gt;1 -->
<g id="edge8" class="edge"><title>3&#45;&gt;1</title>
<path fill="none" stroke="black" d="M39.4804,-73.6621C46.5124,-64.4564 55.4347,-52.7764 63.2883,-42.4953"/>
<polygon fill="black" stroke="black" points="66.28,-44.3446 69.569,-34.2733 60.7172,-40.0953 66.28,-44.3446"/>
</g>
<!-- 1&#45;&gt;0 -->
<g id="edge10" class="edge"><title>1&#45;&gt;0</title>
<path fill="none" stroke="black" d="M89.9911,-35.3587C102.691,-65.3769 124.534,-128.696 109,-180 105.734,-190.787 99.5236,-201.389 93.1687,-210.304"/>
<polygon fill="black" stroke="black" points="90.3715,-208.2 87.1229,-218.284 95.9513,-212.427 90.3715,-208.2"/>
</g>
<!-- 1&#45;&gt;2 -->
<g id="edge12" class="edge"><title>1&#45;&gt;2</title>
<path fill="none" stroke="black" d="M80.8694,-36.0896C79.3392,-60.5727 76.5927,-104.517 74.783,-133.471"/>
<polygon fill="black" stroke="black" points="71.2705,-133.563 74.1399,-143.762 78.2569,-134 71.2705,-133.563"/>
</g>
</g>
</svg>
