digraph rgraph {
  graph [ordering="out"];
  bgcolor=transparent;
  edge [color=black fontcolor=black]
  node [style=filled color=black fillcolor=plum shape=circle]
  subgraph {
    node [fillcolor=dodgerblue];
    0;
    2;
    3;
  }
  subgraph {
    node [fillcolor=darkolivegreen2];
    5;
    6;
    7;
  }
  subgraph {
    node [fillcolor=peachpuff];
    4;
  }
  subgraph {
    node [fillcolor=khaki1];
    1;
  }
  subgraph {
    node [fillcolor=indigo];
    9;
  }
  subgraph {
    node [fillcolor=coral];
    8;
    10;
    11;
  }
  subgraph {
    node [fillcolor=palegreen1];
    13;
  }
  subgraph {
    node [fillcolor=firebrick1];
    12;
    14;
  }
  0 -> 1
  0 -> 2
  0 -> 6
  0 -> 10
  1 -> 9
  2 -> 1
  2 -> 3
  2 -> 6
  2 -> 8
  2 -> 12
  2 -> 14
  3 -> 0
  3 -> 5
  3 -> 9
  3 -> 12
  4 -> 12
  4 -> 14
  5 -> 6
  5 -> 7
  5 -> 12
  6 -> 4
  6 -> 5
  7 -> 5
  7 -> 6
  7 -> 12
  7 -> 13
  7 -> 14
  8 -> 10
  8 -> 11
  8 -> 12
  9 -> 8
  9 -> 10
  10 -> 11
  10 -> 12
  10 -> 13
  11 -> 8
  12 -> 14
  14 -> 12
}
