graph rgraph {
  graph [ordering="out"];
  bgcolor=transparent;
  edge [color=black fontcolor=black]
  node [style=filled color=black fillcolor=dodgerblue shape=circle]
  1;
  2;
  3;
  4;
  5;
  6;
  7;
  8;
  9;
  10;
  11;
  12;
  13;
  subgraph {
    node [fillcolor=plum];
	edge [style=dashed penwidth=3];
    0;
    14;
    0 -- 13
    4 -- 13
    4 -- 14
  }
  1 -- 2
  3 -- 5
  1 -- 6
  2 -- 6
  4 -- 6
  0 -- 7
  5 -- 7
  1 -- 8
  5 -- 8
  6 -- 8
  1 -- 10
  3 -- 10
  9 -- 10
  2 -- 11
  8 -- 11
  1 -- 12
  3 -- 12
  4 -- 12
  8 -- 12
  6 -- 13
  7 -- 13
  11 -- 13
  3 -- 14
  9 -- 14
}
