digraph rgraph {
  graph [ordering="out"];
  bgcolor=transparent;
  edge [color=black fontcolor=black]
  node [style=filled color=black fillcolor=plum shape=circle]
  subgraph {
    edge [style=dashed penwidth=3];
    0 -> 1;
    0 -> 2;
    1 -> 3;
    3 -> 4;
    4 -> 5;
    8 -> 6;
    5 -> 7;
    4 -> 8;
    11 -> 9;
    7 -> 10;
    10 -> 11;
  }
  0 [label="0\n0|23"];
  1 [label="1\n1|20"];
  2 [label="2\n21|22"];
  3 [label="3\n2|19"];
  4 [label="4\n3|18"];
  5 [label="5\n4|13"];
  6 [label="6\n15|16"];
  7 [label="7\n5|12"];
  8 [label="8\n14|17"];
  9 [label="9\n8|9"];
  10 [label="10\n6|11"];
  11 [label="11\n7|10"];
  0 -> 3
  0 -> 8
  0 -> 9
  0 -> 10
  0 -> 11
  1 -> 5
  1 -> 7
  1 -> 8
  1 -> 9
  1 -> 10
  2 -> 0
  2 -> 5
  2 -> 7
  4 -> 7
  5 -> 4
  5 -> 9
  5 -> 10
  6 -> 8
  6 -> 9
  6 -> 10
  6 -> 11
  7 -> 11
  8 -> 7
  8 -> 9
  9 -> 10
  11 -> 10
}
