<?xml version="1.0" encoding="UTF-8" standalone="no"?>
<!DOCTYPE svg PUBLIC "-//W3C//DTD SVG 1.1//EN"
 "http://www.w3.org/Graphics/SVG/1.1/DTD/svg11.dtd">
<!-- Generated by graphviz version 2.26.3 (20100126.1600)
 -->
<!-- Title: _anonymous_0 Pages: 1 -->
<svg width="548pt" height="1028pt"
 viewBox="0.00 0.00 548.30 1028.00" xmlns="http://www.w3.org/2000/svg" xmlns:xlink="http://www.w3.org/1999/xlink">
<g id="graph1" class="graph" transform="scale(1 1) rotate(0) translate(4 1024)">
<title>_anonymous_0</title>
<polygon fill="white" stroke="white" points="-4,5 -4,-1024 545.305,-1024 545.305,5 -4,5"/>
<!-- 0 -->
<g id="node1" class="node"><title>0</title>
<ellipse fill="#cab2d6" stroke="black" cx="312" cy="-990" rx="33.9411" ry="29.6985"/>
<text text-anchor="middle" x="312" y="-994.4" font-family="Times Roman,serif" font-size="14.00">0</text>
<text text-anchor="middle" x="312" y="-977.4" font-family="Times Roman,serif" font-size="14.00">1|30</text>
</g>
<!-- 1 -->
<g id="node3" class="node"><title>1</title>
<ellipse fill="#cab2d6" stroke="black" cx="250" cy="-702" rx="33.9411" ry="29.6985"/>
<text text-anchor="middle" x="250" y="-706.4" font-family="Times Roman,serif" font-size="14.00">1</text>
<text text-anchor="middle" x="250" y="-689.4" font-family="Times Roman,serif" font-size="14.00">2|25</text>
</g>
<!-- 0&#45;&gt;1 -->
<g id="edge2" class="edge"><title>0&#45;&gt;1</title>
<path fill="none" stroke="black" stroke-dasharray="1,5" d="M301.652,-961.742C290.358,-929.74 272.607,-875.821 263,-828 257.258,-799.419 253.977,-766.652 252.148,-741.698"/>
<polygon fill="black" stroke="black" points="255.625,-741.254 251.45,-731.517 248.642,-741.733 255.625,-741.254"/>
</g>
<!-- 2 -->
<g id="node5" class="node"><title>2</title>
<ellipse fill="#cab2d6" stroke="black" cx="312" cy="-798" rx="39.8075" ry="29.6985"/>
<text text-anchor="middle" x="312" y="-802.4" font-family="Times Roman,serif" font-size="14.00">2</text>
<text text-anchor="middle" x="312" y="-785.4" font-family="Times Roman,serif" font-size="14.00">26|27</text>
</g>
<!-- 0&#45;&gt;2 -->
<g id="edge4" class="edge"><title>0&#45;&gt;2</title>
<path fill="none" stroke="black" stroke-dasharray="1,5" d="M312,-960.421C312,-927.582 312,-874.405 312,-837.9"/>
<polygon fill="black" stroke="black" points="315.5,-837.613 312,-827.613 308.5,-837.613 315.5,-837.613"/>
</g>
<!-- 3 -->
<g id="node7" class="node"><title>3</title>
<ellipse fill="#cab2d6" stroke="black" cx="456" cy="-894" rx="39.8075" ry="29.6985"/>
<text text-anchor="middle" x="456" y="-898.4" font-family="Times Roman,serif" font-size="14.00">3</text>
<text text-anchor="middle" x="456" y="-881.4" font-family="Times Roman,serif" font-size="14.00">28|29</text>
</g>
<!-- 0&#45;&gt;3 -->
<g id="edge6" class="edge"><title>0&#45;&gt;3</title>
<path fill="none" stroke="black" stroke-dasharray="1,5" d="M339.085,-971.943C361.313,-957.124 393.05,-935.966 417.851,-919.433"/>
<polygon fill="black" stroke="black" points="419.927,-922.255 426.306,-913.796 416.044,-916.431 419.927,-922.255"/>
</g>
<!-- 5 -->
<g id="node10" class="node"><title>5</title>
<ellipse fill="#cab2d6" stroke="black" cx="161" cy="-414" rx="27.0758" ry="29.6985"/>
<text text-anchor="middle" x="161" y="-418.4" font-family="Times Roman,serif" font-size="14.00">5</text>
<text text-anchor="middle" x="161" y="-401.4" font-family="Times Roman,serif" font-size="14.00">5|8</text>
</g>
<!-- 0&#45;&gt;5 -->
<g id="edge33" class="edge"><title>0&#45;&gt;5</title>
<path fill="none" stroke="black" d="M279.68,-980.526C215.046,-959.368 76,-901.789 76,-798 76,-798 76,-798 76,-606 76,-544.916 112.418,-481.536 137.578,-445.038"/>
<polygon fill="black" stroke="black" points="140.489,-446.983 143.388,-436.793 134.767,-442.951 140.489,-446.983"/>
</g>
<!-- 7 -->
<g id="node12" class="node"><title>7</title>
<ellipse fill="#cab2d6" stroke="black" cx="380" cy="-414" rx="33.9411" ry="29.6985"/>
<text text-anchor="middle" x="380" y="-418.4" font-family="Times Roman,serif" font-size="14.00">7</text>
<text text-anchor="middle" x="380" y="-401.4" font-family="Times Roman,serif" font-size="14.00">9|10</text>
</g>
<!-- 0&#45;&gt;7 -->
<g id="edge35" class="edge"><title>0&#45;&gt;7</title>
<path fill="none" stroke="black" d="M329.246,-964.56C351.669,-928.947 388,-861.454 388,-798 388,-798 388,-798 388,-606 388,-553.396 384.965,-492.755 382.634,-453.933"/>
<polygon fill="black" stroke="black" points="386.105,-453.353 381.998,-443.587 379.118,-453.782 386.105,-453.353"/>
</g>
<!-- 10 -->
<g id="node15" class="node"><title>10</title>
<ellipse fill="#cab2d6" stroke="black" cx="424" cy="-318" rx="39.8075" ry="29.6985"/>
<text text-anchor="middle" x="424" y="-322.4" font-family="Times Roman,serif" font-size="14.00">10</text>
<text text-anchor="middle" x="424" y="-305.4" font-family="Times Roman,serif" font-size="14.00">14|21</text>
</g>
<!-- 0&#45;&gt;10 -->
<g id="edge37" class="edge"><title>0&#45;&gt;10</title>
<path fill="none" stroke="black" d="M346.079,-987.781C389.181,-983.124 462.846,-968.698 505,-924 544.877,-881.717 540,-856.12 540,-798 540,-798 540,-798 540,-702 540,-569.577 476.002,-422.019 443.078,-354.868"/>
<polygon fill="black" stroke="black" points="446.037,-352.957 438.457,-345.555 439.767,-356.068 446.037,-352.957"/>
</g>
<!-- 14 -->
<g id="node18" class="node"><title>14</title>
<ellipse fill="#cab2d6" stroke="black" cx="414" cy="-30" rx="39.8075" ry="29.6985"/>
<text text-anchor="middle" x="414" y="-34.4" font-family="Times Roman,serif" font-size="14.00">14</text>
<text text-anchor="middle" x="414" y="-17.4" font-family="Times Roman,serif" font-size="14.00">17|18</text>
</g>
<!-- 0&#45;&gt;14 -->
<g id="edge39" class="edge"><title>0&#45;&gt;14</title>
<path fill="none" stroke="black" d="M278.314,-985.465C197.638,-972.521 0,-927.588 0,-798 0,-798 0,-798 0,-222 3.55271e-15,-161.074 6.38171,-134.007 54,-96 101.126,-58.3864 276.233,-40.2689 363.664,-33.4131"/>
<polygon fill="black" stroke="black" points="364.173,-36.8845 373.878,-32.6323 363.64,-29.9048 364.173,-36.8845"/>
</g>
<!-- 6 -->
<g id="node20" class="node"><title>6</title>
<ellipse fill="#cab2d6" stroke="black" cx="270" cy="-606" rx="33.9411" ry="29.6985"/>
<text text-anchor="middle" x="270" y="-610.4" font-family="Times Roman,serif" font-size="14.00">6</text>
<text text-anchor="middle" x="270" y="-593.4" font-family="Times Roman,serif" font-size="14.00">3|24</text>
</g>
<!-- 1&#45;&gt;6 -->
<g id="edge16" class="edge"><title>1&#45;&gt;6</title>
<path fill="none" stroke="black" stroke-dasharray="1,5" d="M256.055,-672.936C257.879,-664.182 259.911,-654.428 261.847,-645.133"/>
<polygon fill="black" stroke="black" points="265.283,-645.8 263.897,-635.296 258.431,-644.372 265.283,-645.8"/>
</g>
<!-- 2&#45;&gt;1 -->
<g id="edge42" class="edge"><title>2&#45;&gt;1</title>
<path fill="none" stroke="black" d="M294.73,-771.259C287.763,-760.471 279.637,-747.889 272.236,-736.43"/>
<polygon fill="black" stroke="black" points="275.115,-734.437 266.75,-727.935 269.235,-738.235 275.115,-734.437"/>
</g>
<!-- 4 -->
<g id="node8" class="node"><title>4</title>
<ellipse fill="#cab2d6" stroke="black" cx="270" cy="-510" rx="33.9411" ry="29.6985"/>
<text text-anchor="middle" x="270" y="-514.4" font-family="Times Roman,serif" font-size="14.00">4</text>
<text text-anchor="middle" x="270" y="-497.4" font-family="Times Roman,serif" font-size="14.00">4|23</text>
</g>
<!-- 2&#45;&gt;4 -->
<g id="edge44" class="edge"><title>2&#45;&gt;4</title>
<path fill="none" stroke="black" d="M317.435,-768.504C324.234,-725.24 332.753,-642.504 313,-576 309.471,-564.119 303.052,-552.379 296.231,-542.169"/>
<polygon fill="black" stroke="black" points="299.084,-540.141 290.462,-533.983 293.362,-544.173 299.084,-540.141"/>
</g>
<!-- 2&#45;&gt;14 -->
<g id="edge48" class="edge"><title>2&#45;&gt;14</title>
<path fill="none" stroke="black" d="M277.559,-782.225C255.328,-770.731 226.94,-753.444 207,-732 98.0122,-614.789 38,-574.052 38,-414 38,-414 38,-414 38,-222 38,-77.4409 261.171,-41.6632 363.645,-32.8548"/>
<polygon fill="black" stroke="black" points="364.075,-36.3316 373.761,-32.0394 363.513,-29.3542 364.075,-36.3316"/>
</g>
<!-- 2&#45;&gt;6 -->
<g id="edge46" class="edge"><title>2&#45;&gt;6</title>
<path fill="none" stroke="black" d="M309.11,-768.418C306.225,-742.69 301.048,-704.535 293,-672 290.689,-662.658 287.602,-652.769 284.442,-643.569"/>
<polygon fill="black" stroke="black" points="287.66,-642.17 281.018,-633.916 281.063,-644.511 287.66,-642.17"/>
</g>
<!-- 3&#45;&gt;2 -->
<g id="edge50" class="edge"><title>3&#45;&gt;2</title>
<path fill="none" stroke="black" d="M426.163,-874.109C404.152,-859.435 374.024,-839.35 350.245,-823.497"/>
<polygon fill="black" stroke="black" points="352.061,-820.501 341.799,-817.866 348.178,-826.325 352.061,-820.501"/>
</g>
<!-- 3&#45;&gt;7 -->
<g id="edge52" class="edge"><title>3&#45;&gt;7</title>
<path fill="none" stroke="black" d="M448.584,-864.945C439.7,-827.53 426,-760.366 426,-702 426,-702 426,-702 426,-606 426,-551.251 408.093,-490.077 394.624,-451.81"/>
<polygon fill="black" stroke="black" points="397.816,-450.343 391.135,-442.12 391.23,-452.715 397.816,-450.343"/>
</g>
<!-- 8 -->
<g id="node13" class="node"><title>8</title>
<ellipse fill="#cab2d6" stroke="black" cx="250" cy="-414" rx="39.8075" ry="29.6985"/>
<text text-anchor="middle" x="250" y="-418.4" font-family="Times Roman,serif" font-size="14.00">8</text>
<text text-anchor="middle" x="250" y="-401.4" font-family="Times Roman,serif" font-size="14.00">11|22</text>
</g>
<!-- 3&#45;&gt;8 -->
<g id="edge54" class="edge"><title>3&#45;&gt;8</title>
<path fill="none" stroke="black" d="M416.547,-888.81C374.504,-881.531 307.934,-864.793 263,-828 224.782,-796.706 219.891,-779.684 207,-732 180.281,-633.169 214.081,-512.361 235.281,-452.058"/>
<polygon fill="black" stroke="black" points="238.605,-453.158 238.692,-442.563 232.017,-450.791 238.605,-453.158"/>
</g>
<!-- 3&#45;&gt;14 -->
<g id="edge58" class="edge"><title>3&#45;&gt;14</title>
<path fill="none" stroke="black" d="M464.673,-865.089C486.135,-790.901 540,-587.429 540,-414 540,-414 540,-414 540,-222 540,-155.186 486.007,-93.5713 448.71,-58.9798"/>
<polygon fill="black" stroke="black" points="450.789,-56.1406 441.03,-52.0164 446.087,-61.3264 450.789,-56.1406"/>
</g>
<!-- 13 -->
<g id="node24" class="node"><title>13</title>
<ellipse fill="#cab2d6" stroke="black" cx="427" cy="-222" rx="39.8075" ry="29.6985"/>
<text text-anchor="middle" x="427" y="-226.4" font-family="Times Roman,serif" font-size="14.00">13</text>
<text text-anchor="middle" x="427" y="-209.4" font-family="Times Roman,serif" font-size="14.00">15|20</text>
</g>
<!-- 3&#45;&gt;13 -->
<g id="edge56" class="edge"><title>3&#45;&gt;13</title>
<path fill="none" stroke="black" d="M457.998,-864.413C460.368,-826.719 464,-759.55 464,-702 464,-702 464,-702 464,-606 464,-464.61 515.37,-422.892 473,-288 469.305,-276.237 462.688,-264.738 455.604,-254.72"/>
<polygon fill="black" stroke="black" points="458.386,-252.596 449.597,-246.679 452.779,-256.785 458.386,-252.596"/>
</g>
<!-- 4&#45;&gt;5 -->
<g id="edge8" class="edge"><title>4&#45;&gt;5</title>
<path fill="none" stroke="black" stroke-dasharray="1,5" d="M243.244,-491.262C226.172,-477.445 204.292,-458.397 187.316,-442.671"/>
<polygon fill="black" stroke="black" points="189.584,-440 179.896,-435.711 184.795,-445.105 189.584,-440"/>
</g>
<!-- 4&#45;&gt;7 -->
<g id="edge10" class="edge"><title>4&#45;&gt;7</title>
<path fill="none" stroke="black" stroke-dasharray="1,5" d="M291.012,-486.516C306.457,-472.075 327.607,-453.587 345.476,-438.893"/>
<polygon fill="black" stroke="black" points="347.869,-441.459 353.424,-432.437 343.455,-436.026 347.869,-441.459"/>
</g>
<!-- 4&#45;&gt;8 -->
<g id="edge20" class="edge"><title>4&#45;&gt;8</title>
<path fill="none" stroke="black" stroke-dasharray="1,5" d="M263.945,-480.936C262.121,-472.182 260.089,-462.428 258.153,-453.133"/>
<polygon fill="black" stroke="black" points="261.569,-452.372 256.103,-443.296 254.717,-453.8 261.569,-452.372"/>
</g>
<!-- 4&#45;&gt;10 -->
<g id="edge88" class="edge"><title>4&#45;&gt;10</title>
<path fill="none" stroke="black" d="M282.847,-482.606C298.135,-450.633 323.309,-400.082 337,-384 350.376,-368.287 368.105,-354.005 384.068,-342.777"/>
<polygon fill="black" stroke="black" points="386.436,-345.398 392.715,-336.864 382.485,-339.62 386.436,-345.398"/>
</g>
<!-- 4&#45;&gt;6 -->
<g id="edge84" class="edge"><title>4&#45;&gt;6</title>
<path fill="none" stroke="black" d="M276.272,-539.296C276.738,-547.974 276.863,-557.619 276.648,-566.817"/>
<polygon fill="black" stroke="black" points="273.146,-566.809 276.26,-576.936 280.14,-567.078 273.146,-566.809"/>
</g>
<!-- 5&#45;&gt;4 -->
<g id="edge60" class="edge"><title>5&#45;&gt;4</title>
<path fill="none" stroke="black" d="M184.025,-429.741C200.962,-443.237 223.87,-463.069 241.857,-479.641"/>
<polygon fill="black" stroke="black" points="239.531,-482.258 249.233,-486.516 244.304,-477.137 239.531,-482.258"/>
</g>
<!-- 5&#45;&gt;6 -->
<g id="edge62" class="edge"><title>5&#45;&gt;6</title>
<path fill="none" stroke="black" d="M178.599,-436.655C193.679,-462.152 215.278,-504.631 236,-540 241.606,-549.568 247.974,-559.696 253.774,-569.07"/>
<polygon fill="black" stroke="black" points="250.906,-571.088 259.117,-577.783 256.873,-567.428 250.906,-571.088"/>
</g>
<!-- 11 -->
<g id="node26" class="node"><title>11</title>
<ellipse fill="#cab2d6" stroke="black" cx="182" cy="-222" rx="27.0758" ry="29.6985"/>
<text text-anchor="middle" x="182" y="-226.4" font-family="Times Roman,serif" font-size="14.00">11</text>
<text text-anchor="middle" x="182" y="-209.4" font-family="Times Roman,serif" font-size="14.00">6|7</text>
</g>
<!-- 5&#45;&gt;11 -->
<g id="edge24" class="edge"><title>5&#45;&gt;11</title>
<path fill="none" stroke="black" stroke-dasharray="1,5" d="M161.365,-384.348C161.986,-358.738 163.637,-320.793 168,-288 169.19,-279.058 170.931,-269.522 172.783,-260.56"/>
<polygon fill="black" stroke="black" points="176.213,-261.261 174.9,-250.748 169.37,-259.785 176.213,-261.261"/>
</g>
<!-- 7&#45;&gt;4 -->
<g id="edge65" class="edge"><title>7&#45;&gt;4</title>
<path fill="none" stroke="black" d="M358.906,-437.561C343.489,-451.971 322.418,-470.39 304.595,-485.048"/>
<polygon fill="black" stroke="black" points="302.221,-482.468 296.667,-491.49 306.635,-487.9 302.221,-482.468"/>
</g>
<!-- 7&#45;&gt;6 -->
<g id="edge67" class="edge"><title>7&#45;&gt;6</title>
<path fill="none" stroke="black" d="M372.624,-442.923C361.433,-468.723 341.264,-507.353 322,-540 314.967,-551.92 306.774,-564.73 298.882,-575.863"/>
<polygon fill="black" stroke="black" points="296.004,-573.869 292.93,-584.008 301.656,-577.999 296.004,-573.869"/>
</g>
<!-- 8&#45;&gt;10 -->
<g id="edge12" class="edge"><title>8&#45;&gt;10</title>
<path fill="none" stroke="black" stroke-dasharray="1,5" d="M278.552,-393.144C283.997,-390.071 289.645,-386.948 295,-384 324.271,-367.886 331.729,-364.114 361,-348 367.06,-344.664 373.494,-341.105 379.873,-337.646"/>
<polygon fill="black" stroke="black" points="381.967,-340.496 389.13,-332.689 378.662,-334.325 381.967,-340.496"/>
</g>
<!-- 8&#45;&gt;14 -->
<g id="edge96" class="edge"><title>8&#45;&gt;14</title>
<path fill="none" stroke="black" d="M273.008,-389.583C282.678,-377.884 293.046,-363.14 299,-348 340.238,-243.127 271.376,-194.004 327,-96 337.36,-77.7472 355.029,-62.9387 371.748,-52.0089"/>
<polygon fill="black" stroke="black" points="373.72,-54.9043 380.361,-46.6492 370.021,-48.9611 373.72,-54.9043"/>
</g>
<!-- 8&#45;&gt;13 -->
<g id="edge94" class="edge"><title>8&#45;&gt;13</title>
<path fill="none" stroke="black" d="M279.333,-393.459C295.748,-381.238 316.054,-364.863 332,-348 354.541,-324.162 355.287,-314.225 375,-288 383.023,-277.327 391.956,-265.849 400.123,-255.506"/>
<polygon fill="black" stroke="black" points="403.007,-257.502 406.477,-247.491 397.522,-253.153 403.007,-257.502"/>
</g>
<!-- 8&#45;&gt;11 -->
<g id="edge92" class="edge"><title>8&#45;&gt;11</title>
<path fill="none" stroke="black" d="M227.263,-389.473C217.648,-377.752 207.248,-363.021 201,-348 189.576,-320.533 184.911,-287.155 183.057,-261.656"/>
<polygon fill="black" stroke="black" points="186.546,-261.367 182.44,-251.6 179.559,-261.796 186.546,-261.367"/>
</g>
<!-- 9 -->
<g id="node29" class="node"><title>9</title>
<ellipse fill="#cab2d6" stroke="black" cx="250" cy="-318" rx="39.8075" ry="29.6985"/>
<text text-anchor="middle" x="250" y="-322.4" font-family="Times Roman,serif" font-size="14.00">9</text>
<text text-anchor="middle" x="250" y="-305.4" font-family="Times Roman,serif" font-size="14.00">12|13</text>
</g>
<!-- 8&#45;&gt;9 -->
<g id="edge28" class="edge"><title>8&#45;&gt;9</title>
<path fill="none" stroke="black" stroke-dasharray="1,5" d="M243.726,-384.675C243.263,-376.022 243.137,-366.409 243.351,-357.237"/>
<polygon fill="black" stroke="black" points="246.852,-357.271 243.736,-347.145 239.857,-357.005 246.852,-357.271"/>
</g>
<!-- 10&#45;&gt;8 -->
<g id="edge69" class="edge"><title>10&#45;&gt;8</title>
<path fill="none" stroke="black" d="M395.448,-338.856C390.003,-341.929 384.355,-345.052 379,-348 349.729,-364.114 342.271,-367.886 313,-384 306.94,-387.336 300.506,-390.895 294.127,-394.354"/>
<polygon fill="black" stroke="black" points="292.033,-391.504 284.87,-399.311 295.338,-397.675 292.033,-391.504"/>
</g>
<!-- 10&#45;&gt;14 -->
<g id="edge72" class="edge"><title>10&#45;&gt;14</title>
<path fill="none" stroke="black" d="M448.673,-294.718C459.262,-283.038 470.458,-267.988 476,-252 484.733,-226.804 479.644,-218.416 476,-192 469.943,-148.094 465.476,-137.146 449,-96 445.017,-86.0545 439.961,-75.6557 434.938,-66.1317"/>
<polygon fill="black" stroke="black" points="438.005,-64.4434 430.169,-57.3117 431.847,-67.7729 438.005,-64.4434"/>
</g>
<!-- 10&#45;&gt;13 -->
<g id="edge22" class="edge"><title>10&#45;&gt;13</title>
<path fill="none" stroke="black" stroke-dasharray="1,5" d="M424.925,-288.414C425.187,-280.019 425.477,-270.739 425.755,-261.843"/>
<polygon fill="black" stroke="black" points="429.259,-261.759 426.073,-251.654 422.263,-261.54 429.259,-261.759"/>
</g>
<!-- 12 -->
<g id="node16" class="node"><title>12</title>
<ellipse fill="#cab2d6" stroke="black" cx="376" cy="-126" rx="39.8075" ry="29.6985"/>
<text text-anchor="middle" x="376" y="-130.4" font-family="Times Roman,serif" font-size="14.00">12</text>
<text text-anchor="middle" x="376" y="-113.4" font-family="Times Roman,serif" font-size="14.00">16|19</text>
</g>
<!-- 12&#45;&gt;14 -->
<g id="edge14" class="edge"><title>12&#45;&gt;14</title>
<path fill="none" stroke="black" stroke-dasharray="1,5" d="M387.298,-97.4568C390.941,-88.2543 395.038,-77.9034 398.909,-68.1241"/>
<polygon fill="black" stroke="black" points="402.253,-69.1853 402.68,-58.599 395.745,-66.6089 402.253,-69.1853"/>
</g>
<!-- 14&#45;&gt;13 -->
<g id="edge74" class="edge"><title>14&#45;&gt;13</title>
<path fill="none" stroke="black" d="M427.889,-57.8201C430.691,-69.553 432.856,-83.39 434,-96 436.63,-124.978 437.067,-157.855 435.618,-182.758"/>
<polygon fill="black" stroke="black" points="432.114,-182.682 434.882,-192.908 439.096,-183.188 432.114,-182.682"/>
</g>
<!-- 6&#45;&gt;4 -->
<g id="edge18" class="edge"><title>6&#45;&gt;4</title>
<path fill="none" stroke="black" stroke-dasharray="1,5" d="M263.74,-576.936C263.268,-568.276 263.137,-558.635 263.347,-549.43"/>
<polygon fill="black" stroke="black" points="266.849,-549.421 263.728,-539.296 259.854,-549.158 266.849,-549.421"/>
</g>
<!-- 6&#45;&gt;5 -->
<g id="edge77" class="edge"><title>6&#45;&gt;5</title>
<path fill="none" stroke="black" d="M247.035,-584.029C237.431,-571.346 226.78,-554.986 218,-540 201.009,-510.999 183.428,-477.218 172.041,-451.938"/>
<polygon fill="black" stroke="black" points="175.21,-450.451 167.994,-442.693 168.798,-453.258 175.21,-450.451"/>
</g>
<!-- 6&#45;&gt;7 -->
<g id="edge79" class="edge"><title>6&#45;&gt;7</title>
<path fill="none" stroke="black" d="M280.843,-577.76C287.832,-566.2 296.564,-552.603 304,-540 322.166,-509.214 341.137,-473.107 355.847,-447.455"/>
<polygon fill="black" stroke="black" points="359.051,-448.909 361.064,-438.507 353.004,-445.383 359.051,-448.909"/>
</g>
<!-- 6&#45;&gt;12 -->
<g id="edge81" class="edge"><title>6&#45;&gt;12</title>
<path fill="none" stroke="black" d="M243.065,-587.693C206.896,-561.121 144.873,-507.983 125,-444 104.695,-378.625 111.537,-232.904 146,-192 169.152,-164.521 266.041,-144.042 326.439,-133.65"/>
<polygon fill="black" stroke="black" points="327.255,-137.062 336.534,-131.948 326.091,-130.159 327.255,-137.062"/>
</g>
<!-- 13&#45;&gt;12 -->
<g id="edge26" class="edge"><title>13&#45;&gt;12</title>
<path fill="none" stroke="black" stroke-dasharray="1,5" d="M412.385,-194.49C407.104,-184.548 401.055,-173.163 395.426,-162.566"/>
<polygon fill="black" stroke="black" points="398.399,-160.703 390.617,-153.514 392.217,-163.987 398.399,-160.703"/>
</g>
<!-- 13&#45;&gt;14 -->
<g id="edge99" class="edge"><title>13&#45;&gt;14</title>
<path fill="none" stroke="black" d="M420.635,-192.656C419.146,-167.077 418.996,-129.009 416,-96 415.215,-87.3523 413.951,-78.1276 412.778,-69.4001"/>
<polygon fill="black" stroke="black" points="416.244,-68.9098 411.477,-59.4477 409.303,-69.8169 416.244,-68.9098"/>
</g>
<!-- 9&#45;&gt;8 -->
<g id="edge102" class="edge"><title>9&#45;&gt;8</title>
<path fill="none" stroke="black" d="M256.264,-347.145C256.732,-355.785 256.862,-365.395 256.653,-374.572"/>
<polygon fill="black" stroke="black" points="253.152,-374.551 256.274,-384.675 260.147,-374.814 253.152,-374.551"/>
</g>
<!-- 9&#45;&gt;11 -->
<g id="edge104" class="edge"><title>9&#45;&gt;11</title>
<path fill="none" stroke="black" d="M231.419,-291.768C223.112,-280.04 213.247,-266.113 204.523,-253.798"/>
<polygon fill="black" stroke="black" points="207.336,-251.714 198.7,-245.576 201.624,-255.76 207.336,-251.714"/>
</g>
</g>
</svg>
